// Jest Snapshot v1, https://goo.gl/fbAQLP

exports[`App snapshot | with initialState 1`] = `
Array [
  <header
    className="flex-row flex-reverse"
  >
    <div
      className="flex-item"
    >
      <label
        className="button"
      >
        <input
          accept="image/png,image/jpeg"
          onChange={[Function]}
          type="file"
        />
        UPLOAD
      </label>
    </div>
    <div
      className="flex-item"
    >
      <input
        onChange={[Function]}
        placeholder="Search documents..."
        type="text"
        value=""
      />
    </div>
  </header>,
  <main>
    <aside
      className="flex-row"
    >
      <h2
        className="flex-item"
      >
        2
         documents
      </h2>
      <h4
        className="flex-item"
      >
        Total size: 
        229.49kB
      </h4>
    </aside>
    <div
      className="grid-container"
    >
      <div>
        <div
          className="document-card flex-column"
        >
          <h3>
            document 1
          </h3>
          <div
            className="flex-row"
          >
            <span>
              1000b
            </span>
            <button
              onClick={[Function]}
              type="button"
            >
              delete
            </button>
          </div>
        </div>
      </div>
      <div>
        <div
          className="document-card flex-column"
        >
          <h3>
            document 3
          </h3>
          <div
            className="flex-row"
          >
            <span>
              228.52kB
            </span>
            <button
              onClick={[Function]}
              type="button"
            >
              delete
            </button>
          </div>
        </div>
      </div>
    </div>
  </main>,
]
`;

exports[`App snapshot | with initialState alert 1`] = `
Array [
  <header
    className="flex-row flex-reverse"
  >
    <div
      className="flex-item"
    >
      <label
        className="button"
      >
        <input
          accept="image/png,image/jpeg"
          onChange={[Function]}
          type="file"
        />
        UPLOAD
      </label>
    </div>
    <div
      className="flex-item"
    >
      <input
        onChange={[Function]}
        placeholder="Search documents..."
        type="text"
        value=""
      />
    </div>
  </header>,
  <main>
    <aside
      className="flex-row"
    >
      <h2
        className="flex-item"
      >
        2
         documents
      </h2>
      <h4
        className="flex-item"
      >
        Total size: 
        229.49kB
      </h4>
    </aside>
    <div
      className="grid-container"
    >
      <div>
        <div
          className="document-card flex-column"
        >
          <h3>
            document 1
          </h3>
          <div
            className="flex-row"
          >
            <span>
              1000b
            </span>
            <button
              onClick={[Function]}
              type="button"
            >
              delete
            </button>
          </div>
        </div>
      </div>
      <div>
        <div
          className="document-card flex-column"
        >
          <h3>
            document 3
          </h3>
          <div
            className="flex-row"
          >
            <span>
              228.52kB
            </span>
            <button
              onClick={[Function]}
              type="button"
            >
              delete
            </button>
          </div>
        </div>
      </div>
    </div>
  </main>,
  <div
    className="alert"
  >
    <div
      className="modal flex-column"
    >
      <p>
        wow
      </p>
      <button
        onClick={[Function]}
        type="button"
      >
        Ok
      </button>
    </div>
  </div>,
]
`;

exports[`App snapshot 1`] = `
Array [
  <header
    className="flex-row flex-reverse"
  >
    <div
      className="flex-item"
    >
      <label
        className="button"
      >
        <input
          accept=""
          onChange={[Function]}
          type="file"
        />
        UPLOAD
      </label>
    </div>
    <div
      className="flex-item"
    >
      <input
        onChange={[Function]}
        placeholder="Search documents..."
        type="text"
        value=""
      />
    </div>
  </header>,
  <main>
    <div
      className="grid-container"
    />
  </main>,
]
`;
